Predicting Housing Prices
…
We reduced our corrplot to only showing variables with a correlation of 0.5 or more with the dependent variable. We expect these variables to be important and appear in our final model.

Data Manipulation and Feature Engineering

In this section we explore some feature engineering - creating few more variables which we believe will help predict housing prices even more accurately.

Well start with neighborhoods, identifying which tend to be more expensive.

neighbourhood_data <- housing_data[,c('Neighborhood','SalePrice')] %>%
  group_by(Neighborhood) %>%
  summarise(mean.price = round(mean(SalePrice, na.rm = TRUE))) %>%
  arrange(desc(mean.price))
neighbourhood_data

## # A tibble: 25 x 2
##    Neighborhood mean.price
##    <fct>             <dbl>
##  1 NoRidge          335295
##  2 NridgHt          316271
##  3 StoneBr          310499
##  4 Timber           242247
##  5 Veenker          238773
##  6 Somerst          225380
##  7 ClearCr          212565
##  8 Crawfor          210625
##  9 CollgCr          197966
## 10 Blmngtn          194871
## # ... with 15 more rows
…
